…
## Number of HSOC

``` r
av %>% 
  filter(str_detect(status_notes, "living"))
```

    ## # A tibble: 40 x 52
    ##    CaseID Opened Closed Updated Status `Status Notes` `Responsible Ag… Category
    ##     <dbl> <chr>  <chr>  <chr>   <chr>  <chr>          <chr>            <chr>   
    ##  1 4.65e6 04/08… 04/09… 04/09/… Closed Case Transfer… DPT Abandoned V… Abandon…
    ##  2 9.79e6 11/10… 11/15… 11/15/… Closed Case Transfer… DPT Abandoned V… Abandon…
    ##  3 9.62e6 10/03… 10/10… 10/10/… Closed Case Transfer… DPT Abandoned V… Abandon…
    ##  4 9.57e6 09/22… 09/28… 09/28/… Closed Case Transfer… DPT Abandoned V… Abandon…
    ##  5 9.56e6 09/18… 09/20… 09/20/… Closed Case Transfer… DPT Abandoned V… Abandon…
    ##  6 9.55e6 09/17… 09/20… 09/20/… Closed Case Transfer… DPT Abandoned V… Abandon…
    ##  7 9.55e6 09/17… 10/02… 10/02/… Closed Case Transfer… DPT Abandoned V… Abandon…
    ##  8 9.52e6 09/10… 09/19… 09/19/… Closed Case Transfer… DPT Abandoned V… Abandon…
    ##  9 9.49e6 09/03… 09/10… 09/10/… Closed Case Transfer… DPT Abandoned V… Abandon…
    ## 10 9.27e6 07/16… 08/15… 08/15/… Closed DPT Abandoned… DPT Abandoned V… Abandon…
    ## # … with 30 more rows, and 44 more variables: `Request Type` <chr>, `Request
    ## #   Details` <chr>, Address <chr>, Street <chr>, `Supervisor District` <dbl>,
    ## #   Neighborhood <chr>, `Police District` <chr>, Latitude <dbl>,
    ## #   Longitude <dbl>, Point <chr>, Source <chr>, `Media URL` <chr>, `SF Find
    ## #   Neighborhoods` <dbl>, `Current Police Districts` <dbl>, `Current Supervisor
    ## #   Districts` <dbl>, `Analysis Neighborhoods` <dbl>,
    ## #   `:@computed_region_rxqg_mtj9` <dbl>, `:@computed_region_yftq_j783` <dbl>,
    ## #   `:@computed_region_jx4q_fizf` <dbl>, `:@computed_region_bh8s_q3mv` <dbl>,
    ## #   `:@computed_region_p5aj_wyqh` <dbl>, `:@computed_region_fyvs_ahh9` <dbl>,
…
## Repeat RVs, trailers, campers, etc.

``` r
av %>% 
  filter(
    str_detect(request_details, "rv")|
    str_detect(request_details, "trailer")|
    str_detect(request_details, "camper")|
    str_detect(request_details, "van")
  ) %>% 
  drop_na(plate) %>% 
  count(plate, sort = TRUE)
```

    ## # A tibble: 3,470 x 2
    ##    plate       n
    ##    <chr>   <int>
    ##  1 3lxy721   113
    ##  2 4ahl026   110
    ##  3 5szu022    40
    ##  4 6puj756    35
    ##  5 6dea826    33
    ##  6 1dyu930    27
    ##  7 5nyl790    26
    ##  8 6emy618    26
    ##  9 2jpu300    25
    ## 10 5flr337    23
    ## # … with 3,460 more rows

## Count by neighborhood

``` r
av %>% 
  count(Neighborhood, sort = TRUE)
```

    ## # A tibble: 118 x 2
    ##    Neighborhood            n
    ##    <chr>               <int>
    ##  1 Bernal Heights      19984
    ##  2 Outer Sunset        18506
    ##  3 Outer Richmond      10097
    ##  4 Parkside             7753
    ##  5 Mission              6786
    ##  6 Bayview              6615
    ##  7 Golden Gate Heights  5989
    ##  8 Buena Vista          5781
    ##  9 Peralta Heights      5506
    ## 10 Potrero Hill         5440
    ## # … with 108 more rows
